# brechas de capital humano

## Inversión Minera

Inversión de las principales ciudades mineras del pais en miles de
dólares.

``` r
log_inversiones <- dat1 %>% 
  filter(Departamento %in% c("ANCASH", "APURIMAC", "AREQUIPA", "CAJAMARCA","HUANCAVELICA","JUNIN","MOQUEGUA","PASCO")) %>% 
  mutate(Año=as.integer(Año)) %>% 
  print()
```

    ## # A tibble: 128 x 4
    ##    Departamento   Año `inversion minera` log_inversion
    ##    <chr>        <int>              <dbl>         <dbl>
    ##  1 ANCASH        2001            503931.          5.70
    ##  2 ANCASH        2002            260670.          5.42
    ##  3 ANCASH        2003            672060.          5.83
    ##  4 ANCASH        2004            723833.          5.86
    ##  5 ANCASH        2005            256634.          5.41
    ##  6 ANCASH        2006            152432.          5.18
    ##  7 ANCASH        2007            179895           5.26
    ##  8 ANCASH        2008            352337.          5.55
    ##  9 ANCASH        2009           1236708.          6.09
    ## 10 ANCASH        2010           3930229.          6.59
    ## # … with 118 more rows
…
## Inversión Minera por nivel Educativo

#### **Inicial**

``` r
nivel1 <- dat2 %>% 
  filter(Nivel=="INICIAL",departamento %in% c("ANCASH", "APURIMAC", "AREQUIPA", "CAJAMARCA","HUANCAVELICA","JUNIN","MOQUEGUA","PASCO")) %>% 
  mutate(año=as.integer(año)) %>% 
  print()
```

    ## # A tibble: 65 x 4
    ##    Nivel   departamento   año Valor
    ##    <chr>   <chr>        <int> <dbl>
    ##  1 INICIAL ANCASH        2008  37.2
    ##  2 INICIAL ANCASH        2009  34.8
    ##  3 INICIAL ANCASH        2010  31.7
    ##  4 INICIAL ANCASH        2011  31.2
    ##  5 INICIAL ANCASH        2012  29.5
    ##  6 INICIAL ANCASH        2013  31.2
    ##  7 INICIAL ANCASH        2014  31.1
    ##  8 INICIAL ANCASH        2015  31.3
    ##  9 INICIAL ANCASH        2016  32.7
    ## 10 INICIAL ANCASH        2017  31.5
    ## # … with 55 more rows
…
</div>

<!--/html_preserve-->

#### **Primaria**

``` r
nivel2 <- dat2 %>% 
  filter(Nivel=="PRIMARIA",departamento %in% c("ANCASH", "APURIMAC", "AREQUIPA", "CAJAMARCA","HUANCAVELICA","JUNIN","MOQUEGUA","PASCO")) %>% 
  mutate(año=as.integer(año)) %>% 
  print()
```

    ## # A tibble: 66 x 4
    ##    Nivel    departamento   año Valor
    ##    <chr>    <chr>        <int> <dbl>
    ##  1 PRIMARIA ANCASH        2008  32.0
    ##  2 PRIMARIA ANCASH        2009  32.3
    ##  3 PRIMARIA ANCASH        2010  33.2
    ##  4 PRIMARIA ANCASH        2011  33.3
    ##  5 PRIMARIA ANCASH        2012  31.6
    ##  6 PRIMARIA ANCASH        2013  31.1
    ##  7 PRIMARIA ANCASH        2014  32.0
    ##  8 PRIMARIA ANCASH        2015  32.8
    ##  9 PRIMARIA ANCASH        2016  29.8
    ## 10 PRIMARIA ANCASH        2017  31.5
    ## # … with 56 more rows
…
</div>

<!--/html_preserve-->

#### **Secundario**

``` r
nivel3 <- dat2 %>% 
  filter(Nivel=="SECUNDARIO",departamento %in% c("ANCASH", "APURIMAC", "AREQUIPA", "CAJAMARCA","HUANCAVELICA","JUNIN","MOQUEGUA","PASCO")) %>% 
  mutate(año=as.integer(año)) %>% 
  print()
```

    ## # A tibble: 66 x 4
    ##    Nivel      departamento   año Valor
    ##    <chr>      <chr>        <int> <dbl>
    ##  1 SECUNDARIO ANCASH        2008  18.6
    ##  2 SECUNDARIO ANCASH        2009  19.5
    ##  3 SECUNDARIO ANCASH        2010  20.9
    ##  4 SECUNDARIO ANCASH        2011  20.0
    ##  5 SECUNDARIO ANCASH        2012  22.5
    ##  6 SECUNDARIO ANCASH        2013  21.6
    ##  7 SECUNDARIO ANCASH        2014  19.9
    ##  8 SECUNDARIO ANCASH        2015  20.9
    ##  9 SECUNDARIO ANCASH        2016  20.3
    ## 10 SECUNDARIO ANCASH        2017  22.1
    ## # … with 56 more rows
…
</div>

<!--/html_preserve-->

#### **Técnico**

``` r
nivel4 <- dat2 %>% 
  filter(Nivel=="TECNICO",departamento %in% c("ANCASH", "APURIMAC", "AREQUIPA", "CAJAMARCA","HUANCAVELICA","JUNIN","MOQUEGUA","PASCO")) %>% 
  mutate(año=as.integer(año)) %>% 
  print()
```

    ## # A tibble: 66 x 4
    ##    Nivel   departamento   año Valor
    ##    <chr>   <chr>        <int> <dbl>
    ##  1 TECNICO ANCASH        2008  8.59
    ##  2 TECNICO ANCASH        2009  9.73
    ##  3 TECNICO ANCASH        2010 10.3 
    ##  4 TECNICO ANCASH        2011 10.4 
    ##  5 TECNICO ANCASH        2012 10.5 
    ##  6 TECNICO ANCASH        2013 10.8 
    ##  7 TECNICO ANCASH        2014 11.7 
    ##  8 TECNICO ANCASH        2015 10.3 
    ##  9 TECNICO ANCASH        2016 11.2 
    ## 10 TECNICO ANCASH        2017 10.2 
    ## # … with 56 more rows
…
</div>

<!--/html_preserve-->

#### **Universitario**

``` r
nivel5 <- dat2 %>% 
  filter(Nivel=="UNIVERSITARIO",departamento %in% c("ANCASH", "APURIMAC", "AREQUIPA", "CAJAMARCA","HUANCAVELICA","JUNIN","MOQUEGUA","PASCO")) %>% 
  mutate(año=as.integer(año)) %>% 
  print()
```

    ## # A tibble: 66 x 4
    ##    Nivel         departamento   año Valor
    ##    <chr>         <chr>        <int> <dbl>
    ##  1 UNIVERSITARIO ANCASH        2008  3.56
    ##  2 UNIVERSITARIO ANCASH        2009  3.75
    ##  3 UNIVERSITARIO ANCASH        2010  3.88
    ##  4 UNIVERSITARIO ANCASH        2011  5.01
    ##  5 UNIVERSITARIO ANCASH        2012  5.83
    ##  6 UNIVERSITARIO ANCASH        2013  5.22
    ##  7 UNIVERSITARIO ANCASH        2014  5.22
    ##  8 UNIVERSITARIO ANCASH        2015  4.79
    ##  9 UNIVERSITARIO ANCASH        2016  5.79
    ## 10 UNIVERSITARIO ANCASH        2017  4.46
    ## # … with 56 more rows
…
